[
  {
    "ENTITY.OBJECT_ID": 18833,
    "ENTITY.STATUS": "Valid",
    "ENTITY.NAME": "JM",
    "ENTITY.ADDITIONAL_NAME": "JJJ",
    "ENTITY.SURNAME": "Alpuerto",
    "ENTITY.TYPE": "Physical",
    "ENTITY.IDENTITY_CODE": "12131",
    "ENTITY.LOCATION": "Armenia, Lori, Shahumyan, Shahumyan",
    "ENTITY.LOCATION_OBJ_ID": 16473,
    "ENTITY.ADDRESS": "Serr",
    "ENTITY.STATE_REGISTRATION_ID": "111",
    "ENTITY.BPG": "122",
    "ENTITY.PHONE": "121",
    "ENTITY.MOBILE": "121212",
    "ENTITY.GENDER": "Female",
    "ENTITY.BIRTH_DATE": "1996-10-22"
  },
  {
    "ENTITY.OBJECT_ID": 18793,
    "ENTITY.STATUS": "Invalid",
    "ENTITY.NAME": "Big fire",
    "ENTITY.SURNAME": "Angelovski",
    "ENTITY.TYPE": "Physical",
    "ENTITY.IDENTITY_CODE": "2223056656",
    "ENTITY.LOCATION": "Armenia, Aragatsotn, Katnaghbyur, Katnaghbyur",
    "ENTITY.LOCATION_OBJ_ID": 17062,
    "ENTITY.ADDRESS": "dd",
    "ENTITY.STATE_REGISTRATION_ID": "44",
    "ENTITY.BPG": "44",
    "ENTITY.PHONE": "44",
    "ENTITY.MOBILE": "44",
    "ENTITY.GENDER": "Male",
    "ENTITY.BIRTH_DATE": "2022-02-22"
  },
  {
    "ENTITY.OBJECT_ID": 18789,
    "ENTITY.STATUS": "Invalid",
    "ENTITY.NAME": "Ang",
    "ENTITY.SURNAME": "Sur",
    "ENTITY.TYPE": "Physical",
    "ENTITY.IDENTITY_CODE": "AA",
    "ENTITY.LOCATION": "Armenia, Gegharkunik, Sevan, Gagarin",
    "ENTITY.LOCATION_OBJ_ID": 17232,
    "ENTITY.ADDRESS": "9 gary avenue",
    "ENTITY.STATE_REGISTRATION_ID": "TIATA12@",
    "ENTITY.BPG": "W12@!",
    "ENTITY.PHONE": "AHAHS",
    "ENTITY.MOBILE": "AASAS",
    "ENTITY.GENDER": "Female"
  },
  {
    "ENTITY.OBJECT_ID": 18314,
    "ENTITY.STATUS": "Valid",
    "ENTITY.NAME": "Dragan",
    "ENTITY.SURNAME": "Ang",
    "ENTITY.TYPE": "Physical",
    "ENTITY.IDENTITY_CODE": "555",
    "ENTITY.LOCATION": "Armenia, Lori, Shnogh, Karkop",
    "ENTITY.LOCATION_OBJ_ID": 17105,
    "ENTITY.ADDRESS": "555",
    "ENTITY.STATE_REGISTRATION_ID": "555",
    "ENTITY.BPG": "555",
    "ENTITY.PHONE": "555",
    "ENTITY.MOBILE": "555"
  },
  {
    "ENTITY.OBJECT_ID": 18174,
    "ENTITY.STATUS": "Valid",
    "ENTITY.NAME": "Kujtim",
    "ENTITY.SURNAME": "Mersini",
    "ENTITY.TYPE": "Physical",
    "ENTITY.IDENTITY_CODE": "A9999B",
    "ENTITY.LOCATION": "Armenia, Kotayk, Lernanist, Lernanist",
    "ENTITY.LOCATION_OBJ_ID": 16640,
    "ENTITY.ADDRESS": "RR.A Moisi - ISUV",
    "ENTITY.STATE_REGISTRATION_ID": "Tirana"
  },
  {
    "ENTITY.OBJECT_ID": 17668,
    "ENTITY.STATUS": "Valid",
    "ENTITY.NAME": "Dragan ",
    "ENTITY.SURNAME": "Angelovski",
    "ENTITY.TYPE": "Physical",
    "ENTITY.IDENTITY_CODE": "222305",
    "ENTITY.LOCATION": "Armenia, Armavir, Arazap, Arazap",
    "ENTITY.LOCATION_OBJ_ID": 17279,
    "ENTITY.ADDRESS": "8 McCullough Dr.",
    "ENTITY.STATE_REGISTRATION_ID": "DE",
    "ENTITY.PHONE": "8664119401",
    "ENTITY.GENDER": "Male",
    "ENTITY.BIRTH_DATE": "2021-11-10"
  },
  {
    "ENTITY.OBJECT_ID": 18830,
    "ENTITY.STATUS": "Valid",
    "ENTITY.NAME": "Joe",
    "ENTITY.TYPE": "Legal",
    "ENTITY.IDENTITY_CODE": "1111",
    "ENTITY.LOCATION": "Armenia, Lori, Nor Khachakap, Nor Khachakap",
    "ENTITY.LOCATION_OBJ_ID": 17091,
    "ENTITY.ADDRESS": "Try address",
    "ENTITY.STATE_REGISTRATION_ID": "1231",
    "ENTITY.BPG": "123",
    "ENTITY.PHONE": "28992920",
    "ENTITY.MOBILE": "2891011",
    "ENTITY.BIRTH_DATE": "2010-01-17"
  },
  {
    "ENTITY.OBJECT_ID": 18825,
    "ENTITY.STATUS": "Invalid",
    "ENTITY.NAME": "Try1",
    "ENTITY.TYPE": "Legal",
    "ENTITY.IDENTITY_CODE": "123",
    "ENTITY.LOCATION": "Armenia, Kotayk, Meghradzor, Meghradzor",
    "ENTITY.LOCATION_OBJ_ID": 16593,
    "ENTITY.ADDRESS": "hshsha",
    "ENTITY.STATE_REGISTRATION_ID": "wekenw",
    "ENTITY.BPG": "28191901",
    "ENTITY.PHONE": "201201201",
    "ENTITY.MOBILE": "2121212",
    "ENTITY.BIRTH_DATE": "1991-03-16"
  },
  {
    "ENTITY.OBJECT_ID": 18801,
    "ENTITY.STATUS": "Valid",
    "ENTITY.NAME": "tfgrd",
    "ENTITY.TYPE": "Legal",
    "ENTITY.IDENTITY_CODE": "222305777",
    "ENTITY.LOCATION": "Armenia, Armavir, Araks (Armavir), Araks (Armavir)",
    "ENTITY.LOCATION_OBJ_ID": 16631,
    "ENTITY.ADDRESS": "Nino Ramishvili",
    "ENTITY.STATE_REGISTRATION_ID": "888",
    "ENTITY.PHONE": "+995591008728",
    "ENTITY.BIRTH_DATE": "2022-02-01"
  },
  {
    "ENTITY.OBJECT_ID": 17726,
    "ENTITY.STATUS": "Invalid",
    "ENTITY.NAME": "Test legal entity",
    "ENTITY.TYPE": "Legal",
    "ENTITY.IDENTITY_CODE": "3960039",
    "ENTITY.LOCATION": "Armenia, Ararat, Masis, Masis",
    "ENTITY.LOCATION_OBJ_ID": 16966,
    "ENTITY.ADDRESS": "new test address",
    "ENTITY.STATE_REGISTRATION_ID": "1230321"
  },
  {
    "ENTITY.OBJECT_ID": 18262,
    "ENTITY.STATUS": "Invalid",
    "ENTITY.NAME": "Local cow",
    "ENTITY.TYPE": "Legal",
    "ENTITY.IDENTITY_CODE": "22230566",
    "ENTITY.LOCATION": "Armenia, Armavir, Aratashen, Aratashen",
    "ENTITY.LOCATION_OBJ_ID": 16575,
    "ENTITY.ADDRESS": "Shalva Radiani street",
    "ENTITY.STATE_REGISTRATION_ID": "6667",
    "ENTITY.PHONE": "591008728",
    "ENTITY.BIRTH_DATE": "2021-12-01"
  },
  {
    "ENTITY.OBJECT_ID": 17669,
    "ENTITY.STATUS": "Valid",
    "ENTITY.NAME": "Agros Fa",
    "ENTITY.TYPE": "Legal",
    "ENTITY.IDENTITY_CODE": "2223051",
    "ENTITY.LOCATION": "Armenia, Lori, Shahumyan, Shahumyan",
    "ENTITY.LOCATION_OBJ_ID": 16473,
    "ENTITY.ADDRESS": "Nino Ramishvili",
    "ENTITY.STATE_REGISTRATION_ID": "TBILISI",
    "ENTITY.PHONE": "+995591008728"
  }
]